Tidy data structures to support exploration and modeling of temporal-context data
…
```r
enquiry_year <- enquiry_full %>% 
  group_by(channel, category) %>% 
  index_by(year = year(date)) %>% 
  summarise(annual_volume = sum(volume))
enquiry_year
```

```
#> # A tsibble: 298 x 4 [1YEAR]
#> # Key:       category, channel [60]
#> # Groups:    channel [5]
#>   channel category                 year annual_volume
#>   <fct>   <fct>                   <dbl>         <int>
#> 1 Email   Animal Control           2014           962
#> 2 Email   Animal Control           2015          2849
#> 3 Email   Animal Control           2016          3159
#> 4 Email   Animal Control           2017          3416
#> 5 Email   Animal Control           2018           860
#> 6 Email   Built Structure Control  2014           336
#> # ... with 292 more rows
```
…
```r
enquiry_sum <- enquiry_full %>% 
  summarise(ttl_volume = sum(volume))
enquiry_sum
```

```
#> # A tsibble: 1,551 x 2 [1DAY]
#>   date       ttl_volume
#>   <date>          <int>
#> 1 2014-01-01        636
#> 2 2014-01-02       2171
#> 3 2014-01-03       1968
#> 4 2014-01-04        559
#> 5 2014-01-05        490
#> 6 2014-01-06       3325
#> # ... with 1,545 more rows
```
…
---

## Slide over calendar periods (row-oriented workflow)

```r
*enquiry_sum %>% 
* mutate(yrmth = yearmonth(date)) %>% 
* nest(-yrmth) %>% 
  mutate(ma = slide_dbl(data, ~ mean(.$ttl_volume), .size = 2)) %>% 
  unnest(data)
```

```
#> # A tibble: 51 x 2
#>      yrmth data              
#>      <mth> <list>            
#> 1 2014 Jan <tsibble [31 × 2]>
#> 2 2014 Feb <tsibble [28 × 2]>
#> 3 2014 Mar <tsibble [31 × 2]>
#> 4 2014 Apr <tsibble [30 × 2]>
#> 5 2014 May <tsibble [31 × 2]>
#> 6 2014 Jun <tsibble [30 × 2]>
#> # ... with 45 more rows
```

---

## Slide over calendar periods (row-oriented workflow)

```r
enquiry_sum %>% 
  mutate(yrmth = yearmonth(date)) %>% 
  nest(-yrmth) %>% 
* mutate(ma = slide_dbl(data, ~ mean(.$ttl_volume), .size = 2)) %>% 
  unnest(data)
```

```
#> # A tibble: 51 x 3
#>      yrmth data                  ma
#>      <mth> <list>             <dbl>
#> 1 2014 Jan <tsibble [31 × 2]>   NA 
#> 2 2014 Feb <tsibble [28 × 2]> 2396.
#> 3 2014 Mar <tsibble [31 × 2]> 2405.
#> 4 2014 Apr <tsibble [30 × 2]> 2363.
#> 5 2014 May <tsibble [31 × 2]> 2566.
#> 6 2014 Jun <tsibble [30 × 2]> 2510.
#> # ... with 45 more rows
```

---

## Slide over calendar periods (row-oriented workflow)

```r
enquiry_sum %>% 
  mutate(yrmth = yearmonth(date)) %>% 
  nest(-yrmth) %>% 
  mutate(ma = slide_dbl(data, ~ mean(.$ttl_volume), .size = 2)) %>% 
* unnest(data)
```

```
#> # A tsibble: 1,551 x 4 [1DAY]
#>      yrmth    ma date       ttl_volume
#>      <mth> <dbl> <date>          <int>
#> 1 2014 Jan    NA 2014-01-01        636
#> 2 2014 Jan    NA 2014-01-02       2171
#> 3 2014 Jan    NA 2014-01-03       1968
#> 4 2014 Jan    NA 2014-01-04        559
#> 5 2014 Jan    NA 2014-01-05        490
#> 6 2014 Jan    NA 2014-01-06       3325
#> # ... with 1,545 more rows
```
…
